<svg width="45" height="50" viewBox="0 0 45 50" fill="none" xmlns="http://www.w3.org/2000/svg">
<path d="M20.9256 34.2707C19.9029 35.417 18.842 35.8633 17.8079 35.8031L17.7949 36.0169C18.7501 36.0665 19.6541 36.0283 20.5077 35.9096C22.6466 35.6121 24.4806 34.8251 26.0163 33.6781C24.857 32.718 23.5108 31.7871 22.0938 30.914C22.0938 32.1871 21.7345 33.3594 20.9256 34.2707Z" fill="#65BC46"/>
<path d="M19.7327 0C3.43959 0 0 14.1152 0 21.6529C0 28.5849 5.63618 35.6048 8.4937 41.0938C9.02374 42.1132 13.8079 50.5216 19.61 49.9744C21.7789 49.768 25.3965 48.9184 27.7037 44.8488C23.313 43.0863 19.7287 39.6215 20.5083 35.9096C19.6539 36.0283 18.7507 36.0665 17.7955 36.0177C16.7077 35.9649 15.5574 35.795 14.3412 35.4983C-7.27021 30.2125 0.0642234 3.37049 18.7678 3.37049C28.4996 3.37049 32.9521 13.5446 31.8392 22.5374C32.7074 22.5374 33.5 22.565 34.2203 22.5927C34.7739 20.253 35.3877 18.567 35.7885 19.0377C36.1478 19.4571 37.2372 20.7302 38.5151 22.3049C39.2858 22.0106 39.9036 21.4732 40.4247 20.527C41.9701 17.715 37.0502 0 19.7327 0Z" fill="#EF4873"/>
<path d="M27.7039 44.8486C29.0754 42.4285 29.9867 40.1644 29.8517 39.0596C29.6265 37.2768 28.1275 35.4282 26.017 33.6787C24.4814 34.825 22.6474 35.6127 20.5085 35.9094C19.7289 39.6214 23.314 43.0862 27.7039 44.8486Z" fill="#FBAE3E"/>
<path d="M22.0936 30.9142C23.5106 31.7873 24.8569 32.7181 26.0161 33.6782C29.3573 31.1874 31.2857 27.008 31.8385 22.5368C32.9514 13.5447 28.4997 3.36985 18.7679 3.36985C0.063522 3.36985 -7.27009 30.2126 14.3414 35.4984C15.5575 35.7952 16.7078 35.9651 17.7956 36.0171L17.8086 35.8033C14.3609 35.6017 11.1643 29.798 10.5319 25.4455C10.1473 22.8099 10.7058 20.7076 12.7146 20.7076C17.6427 20.7076 22.0912 26.4365 22.0936 30.9142Z" fill="#FBAE3E"/>
<path d="M29.8513 39.0595C29.9862 40.1643 29.0757 42.4292 27.7035 44.8485C30.7317 46.0631 34.1469 46.4695 36.7776 45.5867C39.9123 44.2006 36.3248 40.7887 37.8946 38.7514C40.5538 35.298 39.5286 37.61 39.9123 32.7795C37.0825 33.3087 33.7892 33.4038 33.2201 32.7388C32.5836 31.9966 33.3185 26.4206 34.2209 22.5924C33.4998 22.5648 32.708 22.5371 31.8389 22.5371C31.2861 27.0083 29.3578 31.1869 26.0166 33.6786C28.1278 35.4281 29.6269 37.2767 29.8513 39.0595Z" fill="#65BC46"/>
<path d="M10.5322 25.4458C11.1639 29.7983 14.3612 35.6012 17.8081 35.8028C18.843 35.8629 19.9031 35.4174 20.9258 34.2704C21.7347 33.3591 22.094 32.1876 22.094 30.9145C17.9114 28.3358 13.0946 26.2734 10.5322 25.4458Z" fill="#F4782D"/>
<path d="M34.2207 22.5928C36.0458 22.6627 37.427 22.7245 38.5155 22.305C37.2376 20.7303 36.1482 19.4572 35.7889 19.0377C35.3881 18.567 34.7743 20.2531 34.2207 22.5928Z" fill="#65BC46"/>
<path d="M34.2208 22.5923C33.3184 26.4205 32.5835 31.9965 33.22 32.7379C33.7891 33.4037 37.0823 33.3086 39.9122 32.7794C42.1673 32.3591 44.1314 31.6583 44.1859 30.847C44.2664 29.6325 41.0243 25.3897 38.5156 22.3045C37.427 22.724 36.0458 22.6622 34.2208 22.5923Z" fill="#00B3F0"/>
<path d="M10.5319 25.4458C13.0943 26.2734 17.911 28.3359 22.0937 30.9146C22.0912 26.4368 17.6428 20.708 12.7147 20.708C10.7059 20.708 10.1466 22.8103 10.5319 25.4458Z" fill="#00B3F0"/>
<path d="M18.4462 5.0363C35.6888 4.98346 35.0604 39.6362 14.457 34.6642C-5.04562 29.9565 1.66853 5.08752 18.4462 5.0363Z" stroke="black" stroke-width="0.45" stroke-miterlimit="10"/>
<path d="M34.1825 19.4317C35.1662 20.5698 42.6315 28.3994 42.5266 30.0903C42.4201 31.7812 32.8005 33.1649 31.8542 32.069C30.9079 30.9748 33.2004 18.2911 34.1825 19.4317Z" stroke="black" stroke-width="0.45" stroke-miterlimit="10"/>
<path d="M20.5238 33.5148C14.5827 40.2282 7.08328 21.0523 12.9178 21.0353C18.7507 21.0166 23.8845 29.7135 20.5238 33.5148Z" stroke="black" stroke-width="0.45" stroke-miterlimit="10"/>
<path d="M38.0229 32.089C37.679 36.5415 37.9237 35.0278 35.4792 38.2195C34.0395 40.1006 37.5758 43.0622 34.6882 44.3499C28.7569 46.3603 18.1357 40.9412 19.3324 35.1522" stroke="black" stroke-width="0.45" stroke-miterlimit="10"/>
<path d="M30.6978 22.4116C34.9487 22.3994 37.2851 22.301 38.7037 19.7045C40.1215 17.1071 34.0764 1.30175 18.1475 2.30737C5.81341 3.08699 2.24619 15.8446 2.2657 21.9385C2.28359 28.0307 6.73124 34.9408 9.18228 39.264C11.2748 42.9548 14.2909 47.9342 19.3726 47.4366C22.5618 47.1253 29.1085 40.6314 28.7622 37.904C28.0972 32.6531 15.3428 25.8902 10.8074 24.4692" stroke="black" stroke-width="0.45" stroke-miterlimit="10"/>
</svg>
